<?xml version="1.0" standalone="no"?>
<!DOCTYPE svg PUBLIC "-//W3C//DTD SVG 20010904//EN"
 "http://www.w3.org/TR/2001/REC-SVG-20010904/DTD/svg10.dtd">
<svg version="1.0" xmlns="http://www.w3.org/2000/svg"
 width="512.000000pt" height="512.000000pt" viewBox="0 0 512.000000 512.000000"
 preserveAspectRatio="xMidYMid meet">
<metadata>
Created by potrace 1.14, written by Peter Selinger 2001-2017
</metadata>
<g transform="translate(0.000000,512.000000) scale(0.100000,-0.100000)"
fill="#000000" stroke="none">
<path d="M729 4457 c-29 -14 -52 -36 -66 -62 l-23 -40 3 -1806 2 -1806 29 -37
c54 -71 -95 -66 1900 -64 l1805 3 27 21 c15 11 37 33 48 48 l21 27 0 1817 0
1817 -24 34 c-13 18 -42 42 -65 52 -40 18 -106 19 -1827 19 l-1785 0 -45 -23z
m3591 -1897 l0 -1760 -1760 0 -1760 0 0 1760 0 1760 1760 0 1760 0 0 -1760z"/>
<path d="M1832 3663 c-35 -65 -48 -208 -28 -301 l13 -63 -32 -42 c-70 -92
-105 -196 -107 -317 -5 -248 58 -424 196 -546 87 -78 202 -128 356 -154 41 -7
77 -14 79 -16 1 -1 -8 -18 -22 -36 -14 -18 -34 -60 -45 -93 -17 -55 -22 -61
-58 -73 -57 -20 -147 -23 -202 -7 -60 18 -112 62 -162 135 -49 72 -100 115
-162 136 -56 18 -97 15 -112 -8 -9 -15 -5 -22 19 -40 88 -68 124 -112 168
-201 52 -106 100 -160 171 -193 87 -39 155 -47 268 -30 l47 7 3 -99 c4 -123
-4 -181 -25 -197 -10 -7 -17 -14 -17 -17 0 -5 64 -26 99 -33 9 -2 39 -9 66
-15 28 -7 108 -14 180 -16 140 -5 248 9 369 46 65 20 67 22 51 40 -15 16 -17
49 -18 262 -1 267 -10 326 -62 394 -15 20 -25 37 -24 39 2 2 24 6 49 10 229
32 411 139 494 289 74 134 108 343 80 503 -13 77 -67 200 -108 244 -23 25 -24
28 -11 83 17 73 12 196 -12 266 l-18 55 -50 -1 c-61 -2 -181 -47 -273 -103
-61 -37 -71 -40 -101 -31 -81 23 -227 38 -346 35 -125 -3 -163 -8 -275 -34
-43 -10 -48 -8 -120 34 -91 53 -188 91 -257 100 -44 5 -53 3 -61 -12z"/>
</g>
</svg>
